{"success":true,"data":[{"TransID":23566,"Make":"EMAMI","Grade":"Kraft Paper","Brand":"","GSM":170,"Deckle_mm":650,"grain_mm":100,"groupID":3,"memberID":18,"uplaodDate":"2060-01-01T01:01:01.000Z","StockAge":0,"StockStatus":1,"Seller_comments":"Stock - 170GSM\ntest","OfferPrice":120,"OfferUnit":"Kg","ClosePrice":null,"deal_last_status_date":null,"created_by_member_id":18,"created_by_name":"Bijaya Kumar Tiadi","created_by_company":"Renuka Softec IT","deal_created_at":"2025-09-13T23:32:46.000Z","deal_updated_at":"2025-09-13T23:32:46.000Z","quantity":222,"stock_description":"","search_key":"","GroupID":3,"GroupName":"Kraft Reel","seller_email":"bktiadi1@gmail.com"},{"TransID":23565,"Make":"EMAMI","Grade":"Kraft Paper","Brand":"","GSM":170,"Deckle_mm":650,"grain_mm":100,"groupID":3,"memberID":18,"uplaodDate":"2060-01-01T01:01:01.000Z","StockAge":0,"StockStatus":1,"Seller_comments":"Stock - 170GSM\ntest","OfferPrice":120,"OfferUnit":"Kg","ClosePrice":null,"deal_last_status_date":null,"created_by_member_id":18,"created_by_name":"Bijaya Kumar Tiadi","created_by_company":"Renuka Softec IT","deal_created_at":"2025-09-13T23:32:45.000Z","deal_updated_at":"2025-09-13T23:32:45.000Z","quantity":222,"stock_description":"","search_key":"","GroupID":3,"GroupName":"Kraft Reel","seller_email":"bktiadi1@gmail.com"}],"total":55,"page":1,"pageSize":2,"totalPages":28,"searchProvider":"normalization-search","aggregations":{"gsm":[{"GSM":100,"count":3},{"GSM":119,"count":5},{"GSM":120,"count":7},{"GSM":140,"count":3},{"GSM":150,"count":2},{"GSM":170,"count":2},{"GSM":180,"count":2},{"GSM":185,"count":3},{"GSM":200,"count":4},{"GSM":210,"count":3},{"GSM":230,"count":4},{"GSM":250,"count":2},{"GSM":260,"count":1},{"GSM":270,"count":6},{"GSM":285,"count":1},{"GSM":290,"count":2},{"GSM":300,"count":1},{"GSM":330,"count":2},{"GSM":350,"count":1},{"GSM":400,"count":1}],"makes":[{"Make":"BALLARPUR","count":7},{"Make":"Century","count":1},{"Make":"DEV PRIYA PRODUCT","count":15},{"Make":"EMAMI","count":8},{"Make":"ITC","count":7},{"Make":"JK PAPER","count":2},{"Make":"KRISHNA","count":6},{"Make":"MADHUMATI PAPER MILL","count":3},{"Make":"PINEX PAPER MILLS","count":6}],"grades":[{"Grade":"CBB","count":1},{"Grade":"FBB","count":6},{"Grade":"FBB 1PE IN BACK","count":3},{"Grade":"GREY BACK","count":21},{"Grade":"Kraft Paper","count":3},{"Grade":"NATURAL","count":12},{"Grade":"SG","count":3},{"Grade":"SUPER PRINT MAPLITHO PAPER","count":6}],"brands":[{"Brand":"","count":18},{"Brand":"CARTE LUMINA","count":1},{"Brand":"ECOSTRONG","count":6},{"Brand":"INDOBAR","count":3},{"Brand":"PEARL","count":15},{"Brand":"PEARL-XL PAC","count":4},{"Brand":"SUN SHINE","count":6},{"Brand":"ULTIMA","count":2}],"units":[{"OfferUnit":"KG","count":55}]}}